1st Shift,7/5/2022,G11127,232948,A1SL AT CTRL/RWD (84588250),240,240,2,
1st Shift,7/5/2022,G11132,167243,31XX AT CTRL (23397472),819,468,5,We had flash on molding base and had to do cantainment before starting the line 2nd shift picked up for us 
1st Shift,7/5/2022,G11135,300152,C1YC CTRL/LVR (85123747),900,900,6,
2nd Shift,7/5/2022,G11135,300152,C1YC CTRL/LVR (85123747),900,540,6,
1st Shift,7/5/2022,G11137,200580,A1XC MT CTRL-HP/V8 (24288054),48,0,3,Out of dampers 
1st Shift,7/5/2022,G11140,300290,E2SC CTRL/LVR-B.J (42794750),108,54,6,Ran out of bases from molding 
1st Shift,7/5/2022,G11140,245502,NG-CCS Core B.J (13534328),234,234,6,
1st Shift,7/5/2022,G11140,291746,NG-CCS C1UC CORE BJ (13545094),450,117,6,We had 3.8 hours of maints down time on station 1 and 5 
2nd Shift,7/5/2022,G11140,291746,NG-CCS C1UC CORE BJ (13545094),450,351,5,
2nd Shift,7/5/2022,G11140,300155,C1UC CTRL/LVR (85123748),400,0,0,DNR
1st Shift,7/5/2022,G11141,00263795-C3,D2XX AT CTRL (42738853/A),540,540,5,
1st Shift,7/5/2022,G11143,300646,C1UL/TL ETRS/CTRL (85131858),93,93,5,
1st Shift,7/5/2022,G11143,300643,T1ULF ETRS/CTRL (85130197),360,210,5,We had issues with knob pad not feeding down the track and not fully installing the light guide maints made adjustments after lunch and ran much better rest of the day 
2nd Shift,7/5/2022,G11143,300643,T1ULF ETRS/CTRL (85130197),174,192,5,
2nd Shift,7/5/2022,G11143,304703,E2UL ETRS/CTRL G2.4 (85136216),285,70,5,
3rd Shift,7/5/2022,G11143,304703,E2UL ETRS/CTRL G2.4 (85136216),465,300,5,Training 2 new people just started today. 
1st Shift,7/5/2022,G11144,00322093-C1,T1XX-PU ETRS/CTRL (887842768),4,4,8,
1st Shift,7/5/2022,G11144,00322095-C1,T1XX-PU ETRS/CTRL (87842770),4,4,8,
2nd Shift,7/5/2022,G11144,00311542-C1,T1XX-PU ETRS/CTRL (86805073),0,240,8,
2nd Shift,7/5/2022,G11144,00322090-C1,T1XX-PU ETRS/CTRL (87842765),600,216,8,
2nd Shift,7/5/2022,G11144,311559,T1XX-PU ETRS/CTRL (86805065),192,0,0,
1st Shift,7/5/2022,G12003,209115,ON CTRL/LVR (46700S9200),792,792,5,
1st Shift,7/5/2022,G12005,265233,GT10 NX4E LEVER-A/T(LHD VOLT),768,576,5,We was down for about 1.5 hours due to pin press on station 5 had to be replaced 
2nd Shift,7/5/2022,G13004,308999,P702 E-Shift LIT (-CN),150,150,12,
2nd Shift,7/5/2022,G13004,313518,P702 BEV (NL3P-7P427-AF33N5),150,0,0,DNR
2nd Shift,7/5/2022,G13004,309004,P702 E-Shift OR2 (-TK),150,144,12,
2nd Shift,7/5/2022,G13004,308997,P702 E-Shift XLT (-AN),252,252,12,
1st Shift,7/5/2022,G13005,312656,CX727 GSM OTA (-AB),810,810,6,
3rd Shift,7/5/2022,G13005,312656,CX727 GSM OTA (-AB),720,570,6,"Ran out of boards @ 4:30, changed fingers and started to run the parts we changed buttons on. 8 Graph, 2 L button graph, 4 solenoid lock, 7 vision back light. 29 lens cosmetic, 4 lens scratches, 11 dial & bezel cosmetic"
1st Shift,7/5/2022,G13006,00315797-C1,C482MCA GSM (-AD) PZ1P-7P155-AD,810,767,6,
3rd Shift,7/5/2022,G13006,00315797-C1,C482MCA GSM (-AD) PZ1P-7P155-AD,720,570,6,"2 9V backlight, 4 cam lock, 1 cam unlock, 2 graph, 3 solenoid lock, 10 solenoid unlock, 1 version"
1st Shift,7/5/2022,G20018,234495,A1XC PRNDM (84639211),384,384,1,
