3rd Shift,7/10/2022,G11143,304703,E2UL ETRS/CTRL G2.4 (85136216),465,255,5,"Late start up due to power outage. OP 10 servo alarm, no maint call andon system not working, down about 15 mins.  OP 50 bug machine turn table not working  down 15 mins also no maint call. Loretta, Juan, John, Kolby, Gekiya. Lipa-packing."
3rd Shift,7/10/2022,G11144,00311542-C2,T1XX-PU ETRS/CTRL (86805073),300,300,8,"Late start up due to power outage.  2 high light M, 1 deco trim 1 seated, 1 Null, 1 PWM. Jessica, Haley, Carlos, Demetrius, James, Stacy, Rhonda, Catalena. We ran out of boxes at the end of this order and had to  red cone 4 boxes "
3rd Shift,7/10/2022,G11144,00322090-C1,T1XX-PU ETRS/CTRL (87842765),300,204,8,"Late start up because we did not have a rack built for this order. We had to build one, in a hurry to build a rack they grabbed the wrong groove.  All 204 pcs  are red coned because of the box shortage and the wrong groove. Jessica, Haley, Carlos, Demetrius. James, Stacy, Rhonda, Catelena."
3rd Shift,7/10/2022,G13005,313316,C519MCA GSM (-CD),600,0,0,Did not run 
3rd Shift,7/10/2022,G13006,00315801-P,C430MCA GSM (-ED),600,0,0,Did not run 
3rd Shift,7/10/2022,G20022,309151,31XX-N KB&BT BLK LTR CHEVY FRN(85545644),600,600,4,"Late start up power outage. Shane, Isaiah, Amanda, Vanessa"
3rd Shift,7/10/2022,G20023,00307843-C2,D2UC KB&BT (85546109),600,600,4,"Late start up, power outage.   Abigail, Terica, Jill, Rebekah."
